Exploratory Data Analysis (EDA) - Sharif Islam
…
## # A tibble: 3 x 2
##   origin      n
##   <chr>   <int>
## 1 EWR    120835
## 2 JFK    111279
## 3 LGA    104662

Simialrly, we can see where these flights go by the following code -

flights %>% 
  count(dest)

## # A tibble: 105 x 2
##    dest      n
##    <chr> <int>
##  1 ABQ     254
##  2 ACK     265
##  3 ALB     439
##  4 ANC       8
##  5 ATL   17215
##  6 AUS    2439
##  7 AVL     275
##  8 BDL     443
##  9 BGR     375
## 10 BHM     297
## # ... with 95 more rows
…
3rd (Third) verb - arrange ()

The arrange ()function allows you to reorder your data set by one or more variables.
For example, if you want to reorder the flights dataset by distance, you need to execute the following code -

flights %>% 
  arrange(distance)

## # A tibble: 336,776 x 19
##    carrier flight  year month   day dep_time sched_dep_time dep_delay arr_time
##    <chr>   <chr>  <int> <int> <int>    <int>          <int>     <dbl>    <int>
##  1 US      1632    2013     7    27       NA            106        NA       NA
##  2 EV      3833    2013     1     3     2127           2129        -2     2222
##  3 EV      4193    2013     1     4     1240           1200        40     1333
##  4 EV      4502    2013     1     4     1829           1615       134     1937
##  5 EV      4645    2013     1     4     2128           2129        -1     2218
##  6 EV      4193    2013     1     5     1155           1200        -5     1241
##  7 EV      4619    2013     1     6     2125           2129        -4     2224
##  8 EV      4619    2013     1     7     2124           2129        -5     2212
##  9 EV      4619    2013     1     8     2127           2130        -3     2304
## 10 EV      4619    2013     1     9     2126           2129        -3     2217
## # ... with 336,766 more rows, and 10 more variables: sched_arr_time <int>,
## #   arr_delay <dbl>, tailnum <chr>, origin <chr>, dest <chr>, air_time <dbl>,
## #   distance <dbl>, hour <dbl>, minute <dbl>, time_hour <dttm>

From the results, we can see the lowest distance was 17-mile flight between EWR and LGA. The next lowest distance was 80-mile flight between EWR and PHL. However, if you want to see the longest distance, then you have to use desc () function becasue arrange () function reorders the rows in ascending order (from lowest to highest).

flights %>% 
  arrange(desc(distance))

## # A tibble: 336,776 x 19
##    carrier flight  year month   day dep_time sched_dep_time dep_delay arr_time
##    <chr>   <chr>  <int> <int> <int>    <int>          <int>     <dbl>    <int>
##  1 HA      51      2013     1     1      857            900        -3     1516
##  2 HA      51      2013     1     2      909            900         9     1525
##  3 HA      51      2013     1     3      914            900        14     1504
##  4 HA      51      2013     1     4      900            900         0     1516
##  5 HA      51      2013     1     5      858            900        -2     1519
##  6 HA      51      2013     1     6     1019            900        79     1558
##  7 HA      51      2013     1     7     1042            900       102     1620
##  8 HA      51      2013     1     8      901            900         1     1504
##  9 HA      51      2013     1     9      641            900      1301     1242
## 10 HA      51      2013     1    10      859            900        -1     1449
## # ... with 336,766 more rows, and 10 more variables: sched_arr_time <int>,
## #   arr_delay <dbl>, tailnum <chr>, origin <chr>, dest <chr>, air_time <dbl>,
## #   distance <dbl>, hour <dbl>, minute <dbl>, time_hour <dttm>
…
